<?xml version="1.0" encoding="UTF-8" standalone="no"?>
<!DOCTYPE svg PUBLIC "-//W3C//DTD SVG 1.1//EN" "http://www.w3.org/Graphics/SVG/1.1/DTD/svg11.dtd">
<svg width="100%" height="100%" viewBox="0 0 103 103" version="1.1" xmlns="http://www.w3.org/2000/svg" xmlns:xlink="http://www.w3.org/1999/xlink" xml:space="preserve" xmlns:serif="http://www.serif.com/" style="fill-rule:evenodd;clip-rule:evenodd;stroke-linecap:round;stroke-linejoin:round;stroke-miterlimit:1.5;">
    <g>
        <g transform="matrix(1,0,0,1,-965.895,-2976.54)">
            <circle cx="1017.29" cy="3027.94" r="50.896" style="fill:rgb(231,205,39);stroke:black;stroke-width:1px;"/>
        </g>
        <g transform="matrix(0.801812,0,0,0.786749,-764.28,-2330.83)">
            <circle cx="1017.29" cy="3027.94" r="50.896" style="fill:rgb(70,117,230);"/>
        </g>
        <g transform="matrix(0.549728,0,0,0.539401,-507.838,-1581.88)">
            <circle cx="1017.29" cy="3027.94" r="50.896" style="fill:white;"/>
        </g>
        <g transform="matrix(0.303092,0,0,0.297398,-256.937,-849.106)">
            <circle cx="1017.29" cy="3027.94" r="50.896" style="fill:rgb(206,42,42);"/>
        </g>
    </g>
</svg>
